<svg width="24" height="24" viewBox="0 0 24 24" fill="none" xmlns="http://www.w3.org/2000/svg">
<path d="M11.795 16.9061L9.73001 18.9151C9.37201 19.2631 8.77301 19.1091 8.62801 18.6311L7.25201 14.1011" stroke="white" stroke-width="1.5" stroke-linecap="round" stroke-linejoin="round"/>
<path d="M14.104 10.927C14.104 10.927 11.515 13.263 10.187 14.462C9.79001 14.82 9.82301 15.45 10.253 15.767L15.631 19.74C16.16 20.131 16.916 19.844 17.053 19.2L19.694 6.75299C19.822 6.15099 19.231 5.64799 18.657 5.86899L3.14201 11.853C2.68501 12.029 2.70701 12.682 3.17401 12.828L7.25101 14.1" stroke="white" stroke-width="1.5" stroke-linecap="round" stroke-linejoin="round"/>
</svg>
